{
    "version": 7,
    "configurePresets": [
        {
            "name": "default",
            "hidden": true,
            "description": "Base configuration",
            "generator": "Ninja Multi-Config",
            "binaryDir": "${sourceDir}/build"
        },
        {
            "name": "clang",
            "inherits": [
                "default"
            ],
            "cacheVariables": {
                "CMAKE_C_COMPILER": "clang",
                "CMAKE_CXX_COMPILER": "clang++"
            }
        },
        {
            "name": "clang-cl",
            "inherits": [
                "default"
            ],
            "cacheVariables": {
                "CMAKE_C_COMPILER": "clang-cl",
                "CMAKE_CXX_COMPILER": "clang-cl"
            }
        },
        {
            "name": "cl",
            "inherits": [
                "default"
            ],
            "cacheVariables": {
                "CMAKE_C_COMPILER": "cl",
                "CMAKE_CXX_COMPILER": "cl"
            }
        },
        {
            "name": "gcc",
            "inherits": [
                "default"
            ],
            "cacheVariables": {
                "CMAKE_C_COMPILER": "gcc",
                "CMAKE_CXX_COMPILER": "g++"
            }
        }
    ],
    "buildPresets": [
        {
            "name": "clang",
            "configurePreset": "clang"
        },
        {
            "name": "clang-release",
            "configurePreset": "clang",
            "configuration": "Release"
        },
        {
            "name": "clang-cl",
            "configurePreset": "clang-cl"
        },
        {
            "name": "cl",
            "configurePreset": "cl",
            "configuration": "Release"
        },
        {
            "name": "gcc",
            "configurePreset": "gcc"
        }
    ]
}